(['C:\\Users\\jaden\\Downloads\\Pirate-Cookie-Grabber-main\\Pirate-Cookie-Grabber-main\\PirateStealer.py'],
 ['C:\\Users\\jaden\\Downloads\\Pirate-Cookie-Grabber-main\\Pirate-Cookie-Grabber-main'],
 ['codecs'],
 ['C:\\Users\\jaden\\AppData\\Local\\Programs\\Python\\Python310\\lib\\site-packages\\_pyinstaller_hooks_contrib\\hooks\\stdhooks',
  'C:\\Users\\jaden\\AppData\\Local\\Programs\\Python\\Python310\\lib\\site-packages\\_pyinstaller_hooks_contrib\\hooks\\stdhooks\\__pycache__',
  'C:\\Users\\jaden\\AppData\\Local\\Programs\\Python\\Python310\\lib\\site-packages\\_pyinstaller_hooks_contrib\\hooks\\rthooks',
  'C:\\Users\\jaden\\AppData\\Local\\Programs\\Python\\Python310\\lib\\site-packages\\_pyinstaller_hooks_contrib\\hooks\\rthooks\\__pycache__',
  'C:\\Users\\jaden\\AppData\\Local\\Programs\\Python\\Python310\\lib\\site-packages\\_pyinstaller_hooks_contrib\\hooks'],
 {},
 [],
 [],
 False,
 False,
 False,
 {},
 '3.10.9 (tags/v3.10.9:1dd9be6, Dec  6 2022, 20:01:21) [MSC v.1934 64 bit '
 '(AMD64)]',
 [('pyi_rth_inspect',
   'C:\\Users\\jaden\\AppData\\Local\\Programs\\Python\\Python310\\Lib\\site-packages\\PyInstaller\\hooks\\rthooks\\pyi_rth_inspect.py',
   'PYSOURCE'),
  ('PirateStealer',
   'C:\\Users\\jaden\\Downloads\\Pirate-Cookie-Grabber-main\\Pirate-Cookie-Grabber-main\\PirateStealer.py',
   'PYSOURCE')],
 [('inspect',
   'C:\\Users\\jaden\\AppData\\Local\\Programs\\Python\\Python310\\lib\\inspect.py',
   'PYMODULE'),
  ('importlib',
   'C:\\Users\\jaden\\AppData\\Local\\Programs\\Python\\Python310\\lib\\importlib\\__init__.py',
   'PYMODULE'),
  ('importlib._common',
   'C:\\Users\\jaden\\AppData\\Local\\Programs\\Python\\Python310\\lib\\importlib\\_common.py',
   'PYMODULE'),
  ('importlib._adapters',
   'C:\\Users\\jaden\\AppData\\Local\\Programs\\Python\\Python310\\lib\\importlib\\_adapters.py',
   'PYMODULE'),
  ('typing',
   'C:\\Users\\jaden\\AppData\\Local\\Programs\\Python\\Python310\\lib\\typing.py',
   'PYMODULE'),
  ('contextlib',
   'C:\\Users\\jaden\\AppData\\Local\\Programs\\Python\\Python310\\lib\\contextlib.py',
   'PYMODULE'),
  ('tempfile',
   'C:\\Users\\jaden\\AppData\\Local\\Programs\\Python\\Python310\\lib\\tempfile.py',
   'PYMODULE'),
  ('random',
   'C:\\Users\\jaden\\AppData\\Local\\Programs\\Python\\Python310\\lib\\random.py',
   'PYMODULE'),
  ('_strptime',
   'C:\\Users\\jaden\\AppData\\Local\\Programs\\Python\\Python310\\lib\\_strptime.py',
   'PYMODULE'),
  ('datetime',
   'C:\\Users\\jaden\\AppData\\Local\\Programs\\Python\\Python310\\lib\\datetime.py',
   'PYMODULE'),
  ('calendar',
   'C:\\Users\\jaden\\AppData\\Local\\Programs\\Python\\Python310\\lib\\calendar.py',
   'PYMODULE'),
  ('statistics',
   'C:\\Users\\jaden\\AppData\\Local\\Programs\\Python\\Python310\\lib\\statistics.py',
   'PYMODULE'),
  ('decimal',
   'C:\\Users\\jaden\\AppData\\Local\\Programs\\Python\\Python310\\lib\\decimal.py',
   'PYMODULE'),
  ('_pydecimal',
   'C:\\Users\\jaden\\AppData\\Local\\Programs\\Python\\Python310\\lib\\_pydecimal.py',
   'PYMODULE'),
  ('contextvars',
   'C:\\Users\\jaden\\AppData\\Local\\Programs\\Python\\Python310\\lib\\contextvars.py',
   'PYMODULE'),
  ('fractions',
   'C:\\Users\\jaden\\AppData\\Local\\Programs\\Python\\Python310\\lib\\fractions.py',
   'PYMODULE'),
  ('numbers',
   'C:\\Users\\jaden\\AppData\\Local\\Programs\\Python\\Python310\\lib\\numbers.py',
   'PYMODULE'),
  ('hashlib',
   'C:\\Users\\jaden\\AppData\\Local\\Programs\\Python\\Python310\\lib\\hashlib.py',
   'PYMODULE'),
  ('logging',
   'C:\\Users\\jaden\\AppData\\Local\\Programs\\Python\\Python310\\lib\\logging\\__init__.py',
   'PYMODULE'),
  ('pickle',
   'C:\\Users\\jaden\\AppData\\Local\\Programs\\Python\\Python310\\lib\\pickle.py',
   'PYMODULE'),
  ('pprint',
   'C:\\Users\\jaden\\AppData\\Local\\Programs\\Python\\Python310\\lib\\pprint.py',
   'PYMODULE'),
  ('dataclasses',
   'C:\\Users\\jaden\\AppData\\Local\\Programs\\Python\\Python310\\lib\\dataclasses.py',
   'PYMODULE'),
  ('copy',
   'C:\\Users\\jaden\\AppData\\Local\\Programs\\Python\\Python310\\lib\\copy.py',
   'PYMODULE'),
  ('_compat_pickle',
   'C:\\Users\\jaden\\AppData\\Local\\Programs\\Python\\Python310\\lib\\_compat_pickle.py',
   'PYMODULE'),
  ('struct',
   'C:\\Users\\jaden\\AppData\\Local\\Programs\\Python\\Python310\\lib\\struct.py',
   'PYMODULE'),
  ('threading',
   'C:\\Users\\jaden\\AppData\\Local\\Programs\\Python\\Python310\\lib\\threading.py',
   'PYMODULE'),
  ('_threading_local',
   'C:\\Users\\jaden\\AppData\\Local\\Programs\\Python\\Python310\\lib\\_threading_local.py',
   'PYMODULE'),
  ('string',
   'C:\\Users\\jaden\\AppData\\Local\\Programs\\Python\\Python310\\lib\\string.py',
   'PYMODULE'),
  ('bisect',
   'C:\\Users\\jaden\\AppData\\Local\\Programs\\Python\\Python310\\lib\\bisect.py',
   'PYMODULE'),
  ('shutil',
   'C:\\Users\\jaden\\AppData\\Local\\Programs\\Python\\Python310\\lib\\shutil.py',
   'PYMODULE'),
  ('zipfile',
   'C:\\Users\\jaden\\AppData\\Local\\Programs\\Python\\Python310\\lib\\zipfile.py',
   'PYMODULE'),
  ('py_compile',
   'C:\\Users\\jaden\\AppData\\Local\\Programs\\Python\\Python310\\lib\\py_compile.py',
   'PYMODULE'),
  ('importlib.util',
   'C:\\Users\\jaden\\AppData\\Local\\Programs\\Python\\Python310\\lib\\importlib\\util.py',
   'PYMODULE'),
  ('importlib._abc',
   'C:\\Users\\jaden\\AppData\\Local\\Programs\\Python\\Python310\\lib\\importlib\\_abc.py',
   'PYMODULE'),
  ('tarfile',
   'C:\\Users\\jaden\\AppData\\Local\\Programs\\Python\\Python310\\lib\\tarfile.py',
   'PYMODULE'),
  ('gzip',
   'C:\\Users\\jaden\\AppData\\Local\\Programs\\Python\\Python310\\lib\\gzip.py',
   'PYMODULE'),
  ('_compression',
   'C:\\Users\\jaden\\AppData\\Local\\Programs\\Python\\Python310\\lib\\_compression.py',
   'PYMODULE'),
  ('bz2',
   'C:\\Users\\jaden\\AppData\\Local\\Programs\\Python\\Python310\\lib\\bz2.py',
   'PYMODULE'),
  ('importlib.abc',
   'C:\\Users\\jaden\\AppData\\Local\\Programs\\Python\\Python310\\lib\\importlib\\abc.py',
   'PYMODULE'),
  ('importlib._bootstrap_external',
   'C:\\Users\\jaden\\AppData\\Local\\Programs\\Python\\Python310\\lib\\importlib\\_bootstrap_external.py',
   'PYMODULE'),
  ('importlib.metadata',
   'C:\\Users\\jaden\\AppData\\Local\\Programs\\Python\\Python310\\lib\\importlib\\metadata\\__init__.py',
   'PYMODULE'),
  ('importlib.metadata._itertools',
   'C:\\Users\\jaden\\AppData\\Local\\Programs\\Python\\Python310\\lib\\importlib\\metadata\\_itertools.py',
   'PYMODULE'),
  ('importlib.metadata._functools',
   'C:\\Users\\jaden\\AppData\\Local\\Programs\\Python\\Python310\\lib\\importlib\\metadata\\_functools.py',
   'PYMODULE'),
  ('importlib.metadata._collections',
   'C:\\Users\\jaden\\AppData\\Local\\Programs\\Python\\Python310\\lib\\importlib\\metadata\\_collections.py',
   'PYMODULE'),
  ('importlib.metadata._meta',
   'C:\\Users\\jaden\\AppData\\Local\\Programs\\Python\\Python310\\lib\\importlib\\metadata\\_meta.py',
   'PYMODULE'),
  ('importlib.metadata._adapters',
   'C:\\Users\\jaden\\AppData\\Local\\Programs\\Python\\Python310\\lib\\importlib\\metadata\\_adapters.py',
   'PYMODULE'),
  ('importlib.metadata._text',
   'C:\\Users\\jaden\\AppData\\Local\\Programs\\Python\\Python310\\lib\\importlib\\metadata\\_text.py',
   'PYMODULE'),
  ('email.message',
   'C:\\Users\\jaden\\AppData\\Local\\Programs\\Python\\Python310\\lib\\email\\message.py',
   'PYMODULE'),
  ('email.policy',
   'C:\\Users\\jaden\\AppData\\Local\\Programs\\Python\\Python310\\lib\\email\\policy.py',
   'PYMODULE'),
  ('email.contentmanager',
   'C:\\Users\\jaden\\AppData\\Local\\Programs\\Python\\Python310\\lib\\email\\contentmanager.py',
   'PYMODULE'),
  ('email.quoprimime',
   'C:\\Users\\jaden\\AppData\\Local\\Programs\\Python\\Python310\\lib\\email\\quoprimime.py',
   'PYMODULE'),
  ('email.headerregistry',
   'C:\\Users\\jaden\\AppData\\Local\\Programs\\Python\\Python310\\lib\\email\\headerregistry.py',
   'PYMODULE'),
  ('email._header_value_parser',
   'C:\\Users\\jaden\\AppData\\Local\\Programs\\Python\\Python310\\lib\\email\\_header_value_parser.py',
   'PYMODULE'),
  ('email.iterators',
   'C:\\Users\\jaden\\AppData\\Local\\Programs\\Python\\Python310\\lib\\email\\iterators.py',
   'PYMODULE'),
  ('email.generator',
   'C:\\Users\\jaden\\AppData\\Local\\Programs\\Python\\Python310\\lib\\email\\generator.py',
   'PYMODULE'),
  ('email._encoded_words',
   'C:\\Users\\jaden\\AppData\\Local\\Programs\\Python\\Python310\\lib\\email\\_encoded_words.py',
   'PYMODULE'),
  ('email.charset',
   'C:\\Users\\jaden\\AppData\\Local\\Programs\\Python\\Python310\\lib\\email\\charset.py',
   'PYMODULE'),
  ('email.encoders',
   'C:\\Users\\jaden\\AppData\\Local\\Programs\\Python\\Python310\\lib\\email\\encoders.py',
   'PYMODULE'),
  ('email.base64mime',
   'C:\\Users\\jaden\\AppData\\Local\\Programs\\Python\\Python310\\lib\\email\\base64mime.py',
   'PYMODULE'),
  ('email._policybase',
   'C:\\Users\\jaden\\AppData\\Local\\Programs\\Python\\Python310\\lib\\email\\_policybase.py',
   'PYMODULE'),
  ('email.header',
   'C:\\Users\\jaden\\AppData\\Local\\Programs\\Python\\Python310\\lib\\email\\header.py',
   'PYMODULE'),
  ('email.errors',
   'C:\\Users\\jaden\\AppData\\Local\\Programs\\Python\\Python310\\lib\\email\\errors.py',
   'PYMODULE'),
  ('email.utils',
   'C:\\Users\\jaden\\AppData\\Local\\Programs\\Python\\Python310\\lib\\email\\utils.py',
   'PYMODULE'),
  ('email._parseaddr',
   'C:\\Users\\jaden\\AppData\\Local\\Programs\\Python\\Python310\\lib\\email\\_parseaddr.py',
   'PYMODULE'),
  ('socket',
   'C:\\Users\\jaden\\AppData\\Local\\Programs\\Python\\Python310\\lib\\socket.py',
   'PYMODULE'),
  ('selectors',
   'C:\\Users\\jaden\\AppData\\Local\\Programs\\Python\\Python310\\lib\\selectors.py',
   'PYMODULE'),
  ('quopri',
   'C:\\Users\\jaden\\AppData\\Local\\Programs\\Python\\Python310\\lib\\quopri.py',
   'PYMODULE'),
  ('getopt',
   'C:\\Users\\jaden\\AppData\\Local\\Programs\\Python\\Python310\\lib\\getopt.py',
   'PYMODULE'),
  ('gettext',
   'C:\\Users\\jaden\\AppData\\Local\\Programs\\Python\\Python310\\lib\\gettext.py',
   'PYMODULE'),
  ('uu',
   'C:\\Users\\jaden\\AppData\\Local\\Programs\\Python\\Python310\\lib\\uu.py',
   'PYMODULE'),
  ('optparse',
   'C:\\Users\\jaden\\AppData\\Local\\Programs\\Python\\Python310\\lib\\optparse.py',
   'PYMODULE'),
  ('textwrap',
   'C:\\Users\\jaden\\AppData\\Local\\Programs\\Python\\Python310\\lib\\textwrap.py',
   'PYMODULE'),
  ('email',
   'C:\\Users\\jaden\\AppData\\Local\\Programs\\Python\\Python310\\lib\\email\\__init__.py',
   'PYMODULE'),
  ('email.parser',
   'C:\\Users\\jaden\\AppData\\Local\\Programs\\Python\\Python310\\lib\\email\\parser.py',
   'PYMODULE'),
  ('email.feedparser',
   'C:\\Users\\jaden\\AppData\\Local\\Programs\\Python\\Python310\\lib\\email\\feedparser.py',
   'PYMODULE'),
  ('csv',
   'C:\\Users\\jaden\\AppData\\Local\\Programs\\Python\\Python310\\lib\\csv.py',
   'PYMODULE'),
  ('importlib.readers',
   'C:\\Users\\jaden\\AppData\\Local\\Programs\\Python\\Python310\\lib\\importlib\\readers.py',
   'PYMODULE'),
  ('importlib._bootstrap',
   'C:\\Users\\jaden\\AppData\\Local\\Programs\\Python\\Python310\\lib\\importlib\\_bootstrap.py',
   'PYMODULE'),
  ('argparse',
   'C:\\Users\\jaden\\AppData\\Local\\Programs\\Python\\Python310\\lib\\argparse.py',
   'PYMODULE'),
  ('importlib.machinery',
   'C:\\Users\\jaden\\AppData\\Local\\Programs\\Python\\Python310\\lib\\importlib\\machinery.py',
   'PYMODULE'),
  ('dis',
   'C:\\Users\\jaden\\AppData\\Local\\Programs\\Python\\Python310\\lib\\dis.py',
   'PYMODULE'),
  ('opcode',
   'C:\\Users\\jaden\\AppData\\Local\\Programs\\Python\\Python310\\lib\\opcode.py',
   'PYMODULE'),
  ('ast',
   'C:\\Users\\jaden\\AppData\\Local\\Programs\\Python\\Python310\\lib\\ast.py',
   'PYMODULE'),
  ('stringprep',
   'C:\\Users\\jaden\\AppData\\Local\\Programs\\Python\\Python310\\lib\\stringprep.py',
   'PYMODULE'),
  ('tracemalloc',
   'C:\\Users\\jaden\\AppData\\Local\\Programs\\Python\\Python310\\lib\\tracemalloc.py',
   'PYMODULE'),
  ('_py_abc',
   'C:\\Users\\jaden\\AppData\\Local\\Programs\\Python\\Python310\\lib\\_py_abc.py',
   'PYMODULE'),
  ('getpass',
   'C:\\Users\\jaden\\AppData\\Local\\Programs\\Python\\Python310\\lib\\getpass.py',
   'PYMODULE'),
  ('nturl2path',
   'C:\\Users\\jaden\\AppData\\Local\\Programs\\Python\\Python310\\lib\\nturl2path.py',
   'PYMODULE'),
  ('ftplib',
   'C:\\Users\\jaden\\AppData\\Local\\Programs\\Python\\Python310\\lib\\ftplib.py',
   'PYMODULE'),
  ('netrc',
   'C:\\Users\\jaden\\AppData\\Local\\Programs\\Python\\Python310\\lib\\netrc.py',
   'PYMODULE'),
  ('shlex',
   'C:\\Users\\jaden\\AppData\\Local\\Programs\\Python\\Python310\\lib\\shlex.py',
   'PYMODULE'),
  ('mimetypes',
   'C:\\Users\\jaden\\AppData\\Local\\Programs\\Python\\Python310\\lib\\mimetypes.py',
   'PYMODULE'),
  ('http.cookiejar',
   'C:\\Users\\jaden\\AppData\\Local\\Programs\\Python\\Python310\\lib\\http\\cookiejar.py',
   'PYMODULE'),
  ('http',
   'C:\\Users\\jaden\\AppData\\Local\\Programs\\Python\\Python310\\lib\\http\\__init__.py',
   'PYMODULE'),
  ('ssl',
   'C:\\Users\\jaden\\AppData\\Local\\Programs\\Python\\Python310\\lib\\ssl.py',
   'PYMODULE'),
  ('http.client',
   'C:\\Users\\jaden\\AppData\\Local\\Programs\\Python\\Python310\\lib\\http\\client.py',
   'PYMODULE'),
  ('browser_cookie3',
   'C:\\Users\\jaden\\AppData\\Local\\Programs\\Python\\Python310\\lib\\site-packages\\browser_cookie3\\__init__.py',
   'PYMODULE'),
  ('ctypes.wintypes',
   'C:\\Users\\jaden\\AppData\\Local\\Programs\\Python\\Python310\\lib\\ctypes\\wintypes.py',
   'PYMODULE'),
  ('ctypes',
   'C:\\Users\\jaden\\AppData\\Local\\Programs\\Python\\Python310\\lib\\ctypes\\__init__.py',
   'PYMODULE'),
  ('ctypes._endian',
   'C:\\Users\\jaden\\AppData\\Local\\Programs\\Python\\Python310\\lib\\ctypes\\_endian.py',
   'PYMODULE'),
  ('Cryptodome.Util.Padding',
   'C:\\Users\\jaden\\AppData\\Local\\Programs\\Python\\Python310\\lib\\site-packages\\Cryptodome\\Util\\Padding.py',
   'PYMODULE'),
  ('Cryptodome.Util',
   'C:\\Users\\jaden\\AppData\\Local\\Programs\\Python\\Python310\\lib\\site-packages\\Cryptodome\\Util\\__init__.py',
   'PYMODULE'),
  ('Cryptodome.Util._cpu_features',
   'C:\\Users\\jaden\\AppData\\Local\\Programs\\Python\\Python310\\lib\\site-packages\\Cryptodome\\Util\\_cpu_features.py',
   'PYMODULE'),
  ('Cryptodome.Util._raw_api',
   'C:\\Users\\jaden\\AppData\\Local\\Programs\\Python\\Python310\\lib\\site-packages\\Cryptodome\\Util\\_raw_api.py',
   'PYMODULE'),
  ('platform',
   'C:\\Users\\jaden\\AppData\\Local\\Programs\\Python\\Python310\\lib\\platform.py',
   'PYMODULE'),
  ('ctypes.util',
   'C:\\Users\\jaden\\AppData\\Local\\Programs\\Python\\Python310\\lib\\ctypes\\util.py',
   'PYMODULE'),
  ('ctypes._aix',
   'C:\\Users\\jaden\\AppData\\Local\\Programs\\Python\\Python310\\lib\\ctypes\\_aix.py',
   'PYMODULE'),
  ('ctypes.macholib.dyld',
   'C:\\Users\\jaden\\AppData\\Local\\Programs\\Python\\Python310\\lib\\ctypes\\macholib\\dyld.py',
   'PYMODULE'),
  ('ctypes.macholib',
   'C:\\Users\\jaden\\AppData\\Local\\Programs\\Python\\Python310\\lib\\ctypes\\macholib\\__init__.py',
   'PYMODULE'),
  ('ctypes.macholib.dylib',
   'C:\\Users\\jaden\\AppData\\Local\\Programs\\Python\\Python310\\lib\\ctypes\\macholib\\dylib.py',
   'PYMODULE'),
  ('ctypes.macholib.framework',
   'C:\\Users\\jaden\\AppData\\Local\\Programs\\Python\\Python310\\lib\\ctypes\\macholib\\framework.py',
   'PYMODULE'),
  ('imp',
   'C:\\Users\\jaden\\AppData\\Local\\Programs\\Python\\Python310\\lib\\imp.py',
   'PYMODULE'),
  ('Cryptodome.Util._file_system',
   'C:\\Users\\jaden\\AppData\\Local\\Programs\\Python\\Python310\\lib\\site-packages\\Cryptodome\\Util\\_file_system.py',
   'PYMODULE'),
  ('Cryptodome',
   'C:\\Users\\jaden\\AppData\\Local\\Programs\\Python\\Python310\\lib\\site-packages\\Cryptodome\\__init__.py',
   'PYMODULE'),
  ('Cryptodome.Util.py3compat',
   'C:\\Users\\jaden\\AppData\\Local\\Programs\\Python\\Python310\\lib\\site-packages\\Cryptodome\\Util\\py3compat.py',
   'PYMODULE'),
  ('Cryptodome.Protocol.KDF',
   'C:\\Users\\jaden\\AppData\\Local\\Programs\\Python\\Python310\\lib\\site-packages\\Cryptodome\\Protocol\\KDF.py',
   'PYMODULE'),
  ('Cryptodome.Protocol',
   'C:\\Users\\jaden\\AppData\\Local\\Programs\\Python\\Python310\\lib\\site-packages\\Cryptodome\\Protocol\\__init__.py',
   'PYMODULE'),
  ('Cryptodome.Cipher._EKSBlowfish',
   'C:\\Users\\jaden\\AppData\\Local\\Programs\\Python\\Python310\\lib\\site-packages\\Cryptodome\\Cipher\\_EKSBlowfish.py',
   'PYMODULE'),
  ('Cryptodome.Util.number',
   'C:\\Users\\jaden\\AppData\\Local\\Programs\\Python\\Python310\\lib\\site-packages\\Cryptodome\\Util\\number.py',
   'PYMODULE'),
  ('Cryptodome.Random',
   'C:\\Users\\jaden\\AppData\\Local\\Programs\\Python\\Python310\\lib\\site-packages\\Cryptodome\\Random\\__init__.py',
   'PYMODULE'),
  ('Cryptodome.Util.strxor',
   'C:\\Users\\jaden\\AppData\\Local\\Programs\\Python\\Python310\\lib\\site-packages\\Cryptodome\\Util\\strxor.py',
   'PYMODULE'),
  ('Cryptodome.Hash.BLAKE2s',
   'C:\\Users\\jaden\\AppData\\Local\\Programs\\Python\\Python310\\lib\\site-packages\\Cryptodome\\Hash\\BLAKE2s.py',
   'PYMODULE'),
  ('Cryptodome.Hash.CMAC',
   'C:\\Users\\jaden\\AppData\\Local\\Programs\\Python\\Python310\\lib\\site-packages\\Cryptodome\\Hash\\CMAC.py',
   'PYMODULE'),
  ('Cryptodome.Hash.HMAC',
   'C:\\Users\\jaden\\AppData\\Local\\Programs\\Python\\Python310\\lib\\site-packages\\Cryptodome\\Hash\\HMAC.py',
   'PYMODULE'),
  ('Cryptodome.Hash.MD5',
   'C:\\Users\\jaden\\AppData\\Local\\Programs\\Python\\Python310\\lib\\site-packages\\Cryptodome\\Hash\\MD5.py',
   'PYMODULE'),
  ('Cryptodome.Hash.SHA256',
   'C:\\Users\\jaden\\AppData\\Local\\Programs\\Python\\Python310\\lib\\site-packages\\Cryptodome\\Hash\\SHA256.py',
   'PYMODULE'),
  ('Cryptodome.Hash.SHA1',
   'C:\\Users\\jaden\\AppData\\Local\\Programs\\Python\\Python310\\lib\\site-packages\\Cryptodome\\Hash\\SHA1.py',
   'PYMODULE'),
  ('Cryptodome.Hash',
   'C:\\Users\\jaden\\AppData\\Local\\Programs\\Python\\Python310\\lib\\site-packages\\Cryptodome\\Hash\\__init__.py',
   'PYMODULE'),
  ('Cryptodome.Cipher.AES',
   'C:\\Users\\jaden\\AppData\\Local\\Programs\\Python\\Python310\\lib\\site-packages\\Cryptodome\\Cipher\\AES.py',
   'PYMODULE'),
  ('Cryptodome.Cipher',
   'C:\\Users\\jaden\\AppData\\Local\\Programs\\Python\\Python310\\lib\\site-packages\\Cryptodome\\Cipher\\__init__.py',
   'PYMODULE'),
  ('Cryptodome.Cipher._mode_ocb',
   'C:\\Users\\jaden\\AppData\\Local\\Programs\\Python\\Python310\\lib\\site-packages\\Cryptodome\\Cipher\\_mode_ocb.py',
   'PYMODULE'),
  ('Cryptodome.Cipher._mode_gcm',
   'C:\\Users\\jaden\\AppData\\Local\\Programs\\Python\\Python310\\lib\\site-packages\\Cryptodome\\Cipher\\_mode_gcm.py',
   'PYMODULE'),
  ('Cryptodome.Cipher._mode_siv',
   'C:\\Users\\jaden\\AppData\\Local\\Programs\\Python\\Python310\\lib\\site-packages\\Cryptodome\\Cipher\\_mode_siv.py',
   'PYMODULE'),
  ('Cryptodome.Cipher._mode_eax',
   'C:\\Users\\jaden\\AppData\\Local\\Programs\\Python\\Python310\\lib\\site-packages\\Cryptodome\\Cipher\\_mode_eax.py',
   'PYMODULE'),
  ('Cryptodome.Cipher._mode_ccm',
   'C:\\Users\\jaden\\AppData\\Local\\Programs\\Python\\Python310\\lib\\site-packages\\Cryptodome\\Cipher\\_mode_ccm.py',
   'PYMODULE'),
  ('Cryptodome.Cipher._mode_openpgp',
   'C:\\Users\\jaden\\AppData\\Local\\Programs\\Python\\Python310\\lib\\site-packages\\Cryptodome\\Cipher\\_mode_openpgp.py',
   'PYMODULE'),
  ('Cryptodome.Cipher._mode_ctr',
   'C:\\Users\\jaden\\AppData\\Local\\Programs\\Python\\Python310\\lib\\site-packages\\Cryptodome\\Cipher\\_mode_ctr.py',
   'PYMODULE'),
  ('Cryptodome.Cipher._mode_ofb',
   'C:\\Users\\jaden\\AppData\\Local\\Programs\\Python\\Python310\\lib\\site-packages\\Cryptodome\\Cipher\\_mode_ofb.py',
   'PYMODULE'),
  ('Cryptodome.Cipher._mode_cfb',
   'C:\\Users\\jaden\\AppData\\Local\\Programs\\Python\\Python310\\lib\\site-packages\\Cryptodome\\Cipher\\_mode_cfb.py',
   'PYMODULE'),
  ('Cryptodome.Cipher._mode_cbc',
   'C:\\Users\\jaden\\AppData\\Local\\Programs\\Python\\Python310\\lib\\site-packages\\Cryptodome\\Cipher\\_mode_cbc.py',
   'PYMODULE'),
  ('Cryptodome.Cipher._mode_ecb',
   'C:\\Users\\jaden\\AppData\\Local\\Programs\\Python\\Python310\\lib\\site-packages\\Cryptodome\\Cipher\\_mode_ecb.py',
   'PYMODULE'),
  ('lz4.block',
   'C:\\Users\\jaden\\AppData\\Local\\Programs\\Python\\Python310\\lib\\site-packages\\lz4\\block\\__init__.py',
   'PYMODULE'),
  ('lz4',
   'C:\\Users\\jaden\\AppData\\Local\\Programs\\Python\\Python310\\lib\\site-packages\\lz4\\__init__.py',
   'PYMODULE'),
  ('lz4.version',
   'C:\\Users\\jaden\\AppData\\Local\\Programs\\Python\\Python310\\lib\\site-packages\\lz4\\version.py',
   'PYMODULE'),
  ('sqlite3',
   'C:\\Users\\jaden\\AppData\\Local\\Programs\\Python\\Python310\\lib\\sqlite3\\__init__.py',
   'PYMODULE'),
  ('sqlite3.dump',
   'C:\\Users\\jaden\\AppData\\Local\\Programs\\Python\\Python310\\lib\\sqlite3\\dump.py',
   'PYMODULE'),
  ('sqlite3.dbapi2',
   'C:\\Users\\jaden\\AppData\\Local\\Programs\\Python\\Python310\\lib\\sqlite3\\dbapi2.py',
   'PYMODULE'),
  ('subprocess',
   'C:\\Users\\jaden\\AppData\\Local\\Programs\\Python\\Python310\\lib\\subprocess.py',
   'PYMODULE'),
  ('signal',
   'C:\\Users\\jaden\\AppData\\Local\\Programs\\Python\\Python310\\lib\\signal.py',
   'PYMODULE'),
  ('glob',
   'C:\\Users\\jaden\\AppData\\Local\\Programs\\Python\\Python310\\lib\\glob.py',
   'PYMODULE'),
  ('configparser',
   'C:\\Users\\jaden\\AppData\\Local\\Programs\\Python\\Python310\\lib\\configparser.py',
   'PYMODULE'),
  ('discordwebhook',
   'C:\\Users\\jaden\\AppData\\Local\\Programs\\Python\\Python310\\lib\\site-packages\\discordwebhook\\__init__.py',
   'PYMODULE'),
  ('discordwebhook.discordwebhook',
   'C:\\Users\\jaden\\AppData\\Local\\Programs\\Python\\Python310\\lib\\site-packages\\discordwebhook\\discordwebhook.py',
   'PYMODULE'),
  ('requests',
   'C:\\Users\\jaden\\AppData\\Local\\Programs\\Python\\Python310\\lib\\site-packages\\requests\\__init__.py',
   'PYMODULE'),
  ('requests.status_codes',
   'C:\\Users\\jaden\\AppData\\Local\\Programs\\Python\\Python310\\lib\\site-packages\\requests\\status_codes.py',
   'PYMODULE'),
  ('requests.structures',
   'C:\\Users\\jaden\\AppData\\Local\\Programs\\Python\\Python310\\lib\\site-packages\\requests\\structures.py',
   'PYMODULE'),
  ('requests.compat',
   'C:\\Users\\jaden\\AppData\\Local\\Programs\\Python\\Python310\\lib\\site-packages\\requests\\compat.py',
   'PYMODULE'),
  ('http.cookies',
   'C:\\Users\\jaden\\AppData\\Local\\Programs\\Python\\Python310\\lib\\http\\cookies.py',
   'PYMODULE'),
  ('requests.models',
   'C:\\Users\\jaden\\AppData\\Local\\Programs\\Python\\Python310\\lib\\site-packages\\requests\\models.py',
   'PYMODULE'),
  ('idna',
   'C:\\Users\\jaden\\AppData\\Local\\Programs\\Python\\Python310\\lib\\site-packages\\idna\\__init__.py',
   'PYMODULE'),
  ('idna.intranges',
   'C:\\Users\\jaden\\AppData\\Local\\Programs\\Python\\Python310\\lib\\site-packages\\idna\\intranges.py',
   'PYMODULE'),
  ('idna.core',
   'C:\\Users\\jaden\\AppData\\Local\\Programs\\Python\\Python310\\lib\\site-packages\\idna\\core.py',
   'PYMODULE'),
  ('idna.uts46data',
   'C:\\Users\\jaden\\AppData\\Local\\Programs\\Python\\Python310\\lib\\site-packages\\idna\\uts46data.py',
   'PYMODULE'),
  ('idna.idnadata',
   'C:\\Users\\jaden\\AppData\\Local\\Programs\\Python\\Python310\\lib\\site-packages\\idna\\idnadata.py',
   'PYMODULE'),
  ('idna.package_data',
   'C:\\Users\\jaden\\AppData\\Local\\Programs\\Python\\Python310\\lib\\site-packages\\idna\\package_data.py',
   'PYMODULE'),
  ('requests.hooks',
   'C:\\Users\\jaden\\AppData\\Local\\Programs\\Python\\Python310\\lib\\site-packages\\requests\\hooks.py',
   'PYMODULE'),
  ('requests.cookies',
   'C:\\Users\\jaden\\AppData\\Local\\Programs\\Python\\Python310\\lib\\site-packages\\requests\\cookies.py',
   'PYMODULE'),
  ('requests.auth',
   'C:\\Users\\jaden\\AppData\\Local\\Programs\\Python\\Python310\\lib\\site-packages\\requests\\auth.py',
   'PYMODULE'),
  ('requests._internal_utils',
   'C:\\Users\\jaden\\AppData\\Local\\Programs\\Python\\Python310\\lib\\site-packages\\requests\\_internal_utils.py',
   'PYMODULE'),
  ('urllib3.util',
   'C:\\Users\\jaden\\AppData\\Local\\Programs\\Python\\Python310\\lib\\site-packages\\urllib3\\util\\__init__.py',
   'PYMODULE'),
  ('urllib3.util.wait',
   'C:\\Users\\jaden\\AppData\\Local\\Programs\\Python\\Python310\\lib\\site-packages\\urllib3\\util\\wait.py',
   'PYMODULE'),
  ('urllib3.util.url',
   'C:\\Users\\jaden\\AppData\\Local\\Programs\\Python\\Python310\\lib\\site-packages\\urllib3\\util\\url.py',
   'PYMODULE'),
  ('urllib3.packages.six',
   'C:\\Users\\jaden\\AppData\\Local\\Programs\\Python\\Python310\\lib\\site-packages\\urllib3\\packages\\six.py',
   'PYMODULE'),
  ('urllib3.packages',
   'C:\\Users\\jaden\\AppData\\Local\\Programs\\Python\\Python310\\lib\\site-packages\\urllib3\\packages\\__init__.py',
   'PYMODULE'),
  ('urllib3.util.timeout',
   'C:\\Users\\jaden\\AppData\\Local\\Programs\\Python\\Python310\\lib\\site-packages\\urllib3\\util\\timeout.py',
   'PYMODULE'),
  ('urllib3.util.ssl_',
   'C:\\Users\\jaden\\AppData\\Local\\Programs\\Python\\Python310\\lib\\site-packages\\urllib3\\util\\ssl_.py',
   'PYMODULE'),
  ('urllib3.util.ssltransport',
   'C:\\Users\\jaden\\AppData\\Local\\Programs\\Python\\Python310\\lib\\site-packages\\urllib3\\util\\ssltransport.py',
   'PYMODULE'),
  ('hmac',
   'C:\\Users\\jaden\\AppData\\Local\\Programs\\Python\\Python310\\lib\\hmac.py',
   'PYMODULE'),
  ('urllib3.util.retry',
   'C:\\Users\\jaden\\AppData\\Local\\Programs\\Python\\Python310\\lib\\site-packages\\urllib3\\util\\retry.py',
   'PYMODULE'),
  ('urllib3.util.response',
   'C:\\Users\\jaden\\AppData\\Local\\Programs\\Python\\Python310\\lib\\site-packages\\urllib3\\util\\response.py',
   'PYMODULE'),
  ('queue',
   'C:\\Users\\jaden\\AppData\\Local\\Programs\\Python\\Python310\\lib\\queue.py',
   'PYMODULE'),
  ('urllib3.util.request',
   'C:\\Users\\jaden\\AppData\\Local\\Programs\\Python\\Python310\\lib\\site-packages\\urllib3\\util\\request.py',
   'PYMODULE'),
  ('urllib3.util.connection',
   'C:\\Users\\jaden\\AppData\\Local\\Programs\\Python\\Python310\\lib\\site-packages\\urllib3\\util\\connection.py',
   'PYMODULE'),
  ('urllib3.contrib._appengine_environ',
   'C:\\Users\\jaden\\AppData\\Local\\Programs\\Python\\Python310\\lib\\site-packages\\urllib3\\contrib\\_appengine_environ.py',
   'PYMODULE'),
  ('__future__',
   'C:\\Users\\jaden\\AppData\\Local\\Programs\\Python\\Python310\\lib\\__future__.py',
   'PYMODULE'),
  ('urllib3.filepost',
   'C:\\Users\\jaden\\AppData\\Local\\Programs\\Python\\Python310\\lib\\site-packages\\urllib3\\filepost.py',
   'PYMODULE'),
  ('urllib3.fields',
   'C:\\Users\\jaden\\AppData\\Local\\Programs\\Python\\Python310\\lib\\site-packages\\urllib3\\fields.py',
   'PYMODULE'),
  ('requests.api',
   'C:\\Users\\jaden\\AppData\\Local\\Programs\\Python\\Python310\\lib\\site-packages\\requests\\api.py',
   'PYMODULE'),
  ('requests.sessions',
   'C:\\Users\\jaden\\AppData\\Local\\Programs\\Python\\Python310\\lib\\site-packages\\requests\\sessions.py',
   'PYMODULE'),
  ('requests.adapters',
   'C:\\Users\\jaden\\AppData\\Local\\Programs\\Python\\Python310\\lib\\site-packages\\requests\\adapters.py',
   'PYMODULE'),
  ('urllib3.contrib.socks',
   'C:\\Users\\jaden\\AppData\\Local\\Programs\\Python\\Python310\\lib\\site-packages\\urllib3\\contrib\\socks.py',
   'PYMODULE'),
  ('urllib3.connectionpool',
   'C:\\Users\\jaden\\AppData\\Local\\Programs\\Python\\Python310\\lib\\site-packages\\urllib3\\connectionpool.py',
   'PYMODULE'),
  ('urllib3.util.ssl_match_hostname',
   'C:\\Users\\jaden\\AppData\\Local\\Programs\\Python\\Python310\\lib\\site-packages\\urllib3\\util\\ssl_match_hostname.py',
   'PYMODULE'),
  ('ipaddress',
   'C:\\Users\\jaden\\AppData\\Local\\Programs\\Python\\Python310\\lib\\ipaddress.py',
   'PYMODULE'),
  ('urllib3.util.queue',
   'C:\\Users\\jaden\\AppData\\Local\\Programs\\Python\\Python310\\lib\\site-packages\\urllib3\\util\\queue.py',
   'PYMODULE'),
  ('urllib3.util.proxy',
   'C:\\Users\\jaden\\AppData\\Local\\Programs\\Python\\Python310\\lib\\site-packages\\urllib3\\util\\proxy.py',
   'PYMODULE'),
  ('urllib3.request',
   'C:\\Users\\jaden\\AppData\\Local\\Programs\\Python\\Python310\\lib\\site-packages\\urllib3\\request.py',
   'PYMODULE'),
  ('urllib3.connection',
   'C:\\Users\\jaden\\AppData\\Local\\Programs\\Python\\Python310\\lib\\site-packages\\urllib3\\connection.py',
   'PYMODULE'),
  ('urllib3._version',
   'C:\\Users\\jaden\\AppData\\Local\\Programs\\Python\\Python310\\lib\\site-packages\\urllib3\\_version.py',
   'PYMODULE'),
  ('urllib3._collections',
   'C:\\Users\\jaden\\AppData\\Local\\Programs\\Python\\Python310\\lib\\site-packages\\urllib3\\_collections.py',
   'PYMODULE'),
  ('urllib3.response',
   'C:\\Users\\jaden\\AppData\\Local\\Programs\\Python\\Python310\\lib\\site-packages\\urllib3\\response.py',
   'PYMODULE'),
  ('urllib3.poolmanager',
   'C:\\Users\\jaden\\AppData\\Local\\Programs\\Python\\Python310\\lib\\site-packages\\urllib3\\poolmanager.py',
   'PYMODULE'),
  ('requests.__version__',
   'C:\\Users\\jaden\\AppData\\Local\\Programs\\Python\\Python310\\lib\\site-packages\\requests\\__version__.py',
   'PYMODULE'),
  ('requests.utils',
   'C:\\Users\\jaden\\AppData\\Local\\Programs\\Python\\Python310\\lib\\site-packages\\requests\\utils.py',
   'PYMODULE'),
  ('requests.certs',
   'C:\\Users\\jaden\\AppData\\Local\\Programs\\Python\\Python310\\lib\\site-packages\\requests\\certs.py',
   'PYMODULE'),
  ('certifi',
   'C:\\Users\\jaden\\AppData\\Local\\Programs\\Python\\Python310\\lib\\site-packages\\certifi\\__init__.py',
   'PYMODULE'),
  ('certifi.core',
   'C:\\Users\\jaden\\AppData\\Local\\Programs\\Python\\Python310\\lib\\site-packages\\certifi\\core.py',
   'PYMODULE'),
  ('importlib.resources',
   'C:\\Users\\jaden\\AppData\\Local\\Programs\\Python\\Python310\\lib\\importlib\\resources.py',
   'PYMODULE'),
  ('requests.packages',
   'C:\\Users\\jaden\\AppData\\Local\\Programs\\Python\\Python310\\lib\\site-packages\\requests\\packages.py',
   'PYMODULE'),
  ('urllib3.exceptions',
   'C:\\Users\\jaden\\AppData\\Local\\Programs\\Python\\Python310\\lib\\site-packages\\urllib3\\exceptions.py',
   'PYMODULE'),
  ('urllib3.contrib.pyopenssl',
   'C:\\Users\\jaden\\AppData\\Local\\Programs\\Python\\Python310\\lib\\site-packages\\urllib3\\contrib\\pyopenssl.py',
   'PYMODULE'),
  ('urllib3.packages.backports.makefile',
   'C:\\Users\\jaden\\AppData\\Local\\Programs\\Python\\Python310\\lib\\site-packages\\urllib3\\packages\\backports\\makefile.py',
   'PYMODULE'),
  ('urllib3.packages.backports',
   'C:\\Users\\jaden\\AppData\\Local\\Programs\\Python\\Python310\\lib\\site-packages\\urllib3\\packages\\backports\\__init__.py',
   'PYMODULE'),
  ('urllib3.contrib',
   'C:\\Users\\jaden\\AppData\\Local\\Programs\\Python\\Python310\\lib\\site-packages\\urllib3\\contrib\\__init__.py',
   'PYMODULE'),
  ('charset_normalizer',
   'C:\\Users\\jaden\\AppData\\Local\\Programs\\Python\\Python310\\lib\\site-packages\\charset_normalizer\\__init__.py',
   'PYMODULE'),
  ('charset_normalizer.version',
   'C:\\Users\\jaden\\AppData\\Local\\Programs\\Python\\Python310\\lib\\site-packages\\charset_normalizer\\version.py',
   'PYMODULE'),
  ('charset_normalizer.utils',
   'C:\\Users\\jaden\\AppData\\Local\\Programs\\Python\\Python310\\lib\\site-packages\\charset_normalizer\\utils.py',
   'PYMODULE'),
  ('charset_normalizer.constant',
   'C:\\Users\\jaden\\AppData\\Local\\Programs\\Python\\Python310\\lib\\site-packages\\charset_normalizer\\constant.py',
   'PYMODULE'),
  ('charset_normalizer.assets',
   'C:\\Users\\jaden\\AppData\\Local\\Programs\\Python\\Python310\\lib\\site-packages\\charset_normalizer\\assets\\__init__.py',
   'PYMODULE'),
  ('charset_normalizer.models',
   'C:\\Users\\jaden\\AppData\\Local\\Programs\\Python\\Python310\\lib\\site-packages\\charset_normalizer\\models.py',
   'PYMODULE'),
  ('charset_normalizer.cd',
   'C:\\Users\\jaden\\AppData\\Local\\Programs\\Python\\Python310\\lib\\site-packages\\charset_normalizer\\cd.py',
   'PYMODULE'),
  ('charset_normalizer.legacy',
   'C:\\Users\\jaden\\AppData\\Local\\Programs\\Python\\Python310\\lib\\site-packages\\charset_normalizer\\legacy.py',
   'PYMODULE'),
  ('charset_normalizer.api',
   'C:\\Users\\jaden\\AppData\\Local\\Programs\\Python\\Python310\\lib\\site-packages\\charset_normalizer\\api.py',
   'PYMODULE'),
  ('requests.exceptions',
   'C:\\Users\\jaden\\AppData\\Local\\Programs\\Python\\Python310\\lib\\site-packages\\requests\\exceptions.py',
   'PYMODULE'),
  ('urllib3',
   'C:\\Users\\jaden\\AppData\\Local\\Programs\\Python\\Python310\\lib\\site-packages\\urllib3\\__init__.py',
   'PYMODULE'),
  ('robloxpy',
   'C:\\Users\\jaden\\AppData\\Local\\Programs\\Python\\Python310\\lib\\site-packages\\robloxpy\\__init__.py',
   'PYMODULE'),
  ('robloxpy.Group',
   'C:\\Users\\jaden\\AppData\\Local\\Programs\\Python\\Python310\\lib\\site-packages\\robloxpy\\Group\\__init__.py',
   'PYMODULE'),
  ('robloxpy.Group.Internal',
   'C:\\Users\\jaden\\AppData\\Local\\Programs\\Python\\Python310\\lib\\site-packages\\robloxpy\\Group\\Internal.py',
   'PYMODULE'),
  ('robloxpy.Group.External',
   'C:\\Users\\jaden\\AppData\\Local\\Programs\\Python\\Python310\\lib\\site-packages\\robloxpy\\Group\\External.py',
   'PYMODULE'),
  ('robloxpy.Market',
   'C:\\Users\\jaden\\AppData\\Local\\Programs\\Python\\Python310\\lib\\site-packages\\robloxpy\\Market\\__init__.py',
   'PYMODULE'),
  ('robloxpy.Market.Internal',
   'C:\\Users\\jaden\\AppData\\Local\\Programs\\Python\\Python310\\lib\\site-packages\\robloxpy\\Market\\Internal.py',
   'PYMODULE'),
  ('robloxpy.User.Internal',
   'C:\\Users\\jaden\\AppData\\Local\\Programs\\Python\\Python310\\lib\\site-packages\\robloxpy\\User\\Internal.py',
   'PYMODULE'),
  ('webbrowser',
   'C:\\Users\\jaden\\AppData\\Local\\Programs\\Python\\Python310\\lib\\webbrowser.py',
   'PYMODULE'),
  ('robloxpy.Market.External',
   'C:\\Users\\jaden\\AppData\\Local\\Programs\\Python\\Python310\\lib\\site-packages\\robloxpy\\Market\\External.py',
   'PYMODULE'),
  ('robloxpy.User',
   'C:\\Users\\jaden\\AppData\\Local\\Programs\\Python\\Python310\\lib\\site-packages\\robloxpy\\User\\__init__.py',
   'PYMODULE'),
  ('robloxpy.User.Groups',
   'C:\\Users\\jaden\\AppData\\Local\\Programs\\Python\\Python310\\lib\\site-packages\\robloxpy\\User\\Groups\\__init__.py',
   'PYMODULE'),
  ('robloxpy.User.Groups.Internal',
   'C:\\Users\\jaden\\AppData\\Local\\Programs\\Python\\Python310\\lib\\site-packages\\robloxpy\\User\\Groups\\Internal.py',
   'PYMODULE'),
  ('robloxpy.User.Groups.External',
   'C:\\Users\\jaden\\AppData\\Local\\Programs\\Python\\Python310\\lib\\site-packages\\robloxpy\\User\\Groups\\External.py',
   'PYMODULE'),
  ('robloxpy.User.Friends',
   'C:\\Users\\jaden\\AppData\\Local\\Programs\\Python\\Python310\\lib\\site-packages\\robloxpy\\User\\Friends\\__init__.py',
   'PYMODULE'),
  ('robloxpy.User.Friends.Internal',
   'C:\\Users\\jaden\\AppData\\Local\\Programs\\Python\\Python310\\lib\\site-packages\\robloxpy\\User\\Friends\\Internal.py',
   'PYMODULE'),
  ('robloxpy.User.Friends.External',
   'C:\\Users\\jaden\\AppData\\Local\\Programs\\Python\\Python310\\lib\\site-packages\\robloxpy\\User\\Friends\\External.py',
   'PYMODULE'),
  ('robloxpy.User.External',
   'C:\\Users\\jaden\\AppData\\Local\\Programs\\Python\\Python310\\lib\\site-packages\\robloxpy\\User\\External.py',
   'PYMODULE'),
  ('robloxpy.Game',
   'C:\\Users\\jaden\\AppData\\Local\\Programs\\Python\\Python310\\lib\\site-packages\\robloxpy\\Game\\__init__.py',
   'PYMODULE'),
  ('robloxpy.Game.Internal',
   'C:\\Users\\jaden\\AppData\\Local\\Programs\\Python\\Python310\\lib\\site-packages\\robloxpy\\Game\\Internal.py',
   'PYMODULE'),
  ('robloxpy.Game.External',
   'C:\\Users\\jaden\\AppData\\Local\\Programs\\Python\\Python310\\lib\\site-packages\\robloxpy\\Game\\External.py',
   'PYMODULE'),
  ('robloxpy.Utils',
   'C:\\Users\\jaden\\AppData\\Local\\Programs\\Python\\Python310\\lib\\site-packages\\robloxpy\\Utils.py',
   'PYMODULE'),
  ('json',
   'C:\\Users\\jaden\\AppData\\Local\\Programs\\Python\\Python310\\lib\\json\\__init__.py',
   'PYMODULE'),
  ('json.encoder',
   'C:\\Users\\jaden\\AppData\\Local\\Programs\\Python\\Python310\\lib\\json\\encoder.py',
   'PYMODULE'),
  ('json.decoder',
   'C:\\Users\\jaden\\AppData\\Local\\Programs\\Python\\Python310\\lib\\json\\decoder.py',
   'PYMODULE'),
  ('json.scanner',
   'C:\\Users\\jaden\\AppData\\Local\\Programs\\Python\\Python310\\lib\\json\\scanner.py',
   'PYMODULE'),
  ('lzma',
   'C:\\Users\\jaden\\AppData\\Local\\Programs\\Python\\Python310\\lib\\lzma.py',
   'PYMODULE'),
  ('base64',
   'C:\\Users\\jaden\\AppData\\Local\\Programs\\Python\\Python310\\lib\\base64.py',
   'PYMODULE')],
 [('python310.dll',
   'C:\\Users\\jaden\\AppData\\Local\\Programs\\Python\\Python310\\python310.dll',
   'BINARY'),
  ('VCRUNTIME140.dll',
   'C:\\Users\\jaden\\AppData\\Local\\Programs\\Python\\Python310\\VCRUNTIME140.dll',
   'BINARY'),
  ('Cryptodome\\PublicKey\\_x25519.pyd',
   'C:\\Users\\jaden\\AppData\\Local\\Programs\\Python\\Python310\\lib\\site-packages\\Cryptodome\\PublicKey\\_x25519.pyd',
   'BINARY'),
  ('Cryptodome\\Hash\\_SHA224.pyd',
   'C:\\Users\\jaden\\AppData\\Local\\Programs\\Python\\Python310\\lib\\site-packages\\Cryptodome\\Hash\\_SHA224.pyd',
   'BINARY'),
  ('Cryptodome\\PublicKey\\_ed448.pyd',
   'C:\\Users\\jaden\\AppData\\Local\\Programs\\Python\\Python310\\lib\\site-packages\\Cryptodome\\PublicKey\\_ed448.pyd',
   'BINARY'),
  ('Cryptodome\\Cipher\\_raw_ofb.pyd',
   'C:\\Users\\jaden\\AppData\\Local\\Programs\\Python\\Python310\\lib\\site-packages\\Cryptodome\\Cipher\\_raw_ofb.pyd',
   'BINARY'),
  ('Cryptodome\\Cipher\\_chacha20.pyd',
   'C:\\Users\\jaden\\AppData\\Local\\Programs\\Python\\Python310\\lib\\site-packages\\Cryptodome\\Cipher\\_chacha20.pyd',
   'BINARY'),
  ('Cryptodome\\Cipher\\_raw_blowfish.pyd',
   'C:\\Users\\jaden\\AppData\\Local\\Programs\\Python\\Python310\\lib\\site-packages\\Cryptodome\\Cipher\\_raw_blowfish.pyd',
   'BINARY'),
  ('Cryptodome\\Cipher\\_raw_aes.pyd',
   'C:\\Users\\jaden\\AppData\\Local\\Programs\\Python\\Python310\\lib\\site-packages\\Cryptodome\\Cipher\\_raw_aes.pyd',
   'BINARY'),
  ('Cryptodome\\PublicKey\\_ec_ws.pyd',
   'C:\\Users\\jaden\\AppData\\Local\\Programs\\Python\\Python310\\lib\\site-packages\\Cryptodome\\PublicKey\\_ec_ws.pyd',
   'BINARY'),
  ('Cryptodome\\PublicKey\\_ed25519.pyd',
   'C:\\Users\\jaden\\AppData\\Local\\Programs\\Python\\Python310\\lib\\site-packages\\Cryptodome\\PublicKey\\_ed25519.pyd',
   'BINARY'),
  ('Cryptodome\\Hash\\_MD5.pyd',
   'C:\\Users\\jaden\\AppData\\Local\\Programs\\Python\\Python310\\lib\\site-packages\\Cryptodome\\Hash\\_MD5.pyd',
   'BINARY'),
  ('Cryptodome\\Cipher\\_ARC4.pyd',
   'C:\\Users\\jaden\\AppData\\Local\\Programs\\Python\\Python310\\lib\\site-packages\\Cryptodome\\Cipher\\_ARC4.pyd',
   'BINARY'),
  ('Cryptodome\\Cipher\\_raw_eksblowfish.pyd',
   'C:\\Users\\jaden\\AppData\\Local\\Programs\\Python\\Python310\\lib\\site-packages\\Cryptodome\\Cipher\\_raw_eksblowfish.pyd',
   'BINARY'),
  ('Cryptodome\\Hash\\_RIPEMD160.pyd',
   'C:\\Users\\jaden\\AppData\\Local\\Programs\\Python\\Python310\\lib\\site-packages\\Cryptodome\\Hash\\_RIPEMD160.pyd',
   'BINARY'),
  ('Cryptodome\\Hash\\_BLAKE2b.pyd',
   'C:\\Users\\jaden\\AppData\\Local\\Programs\\Python\\Python310\\lib\\site-packages\\Cryptodome\\Hash\\_BLAKE2b.pyd',
   'BINARY'),
  ('Cryptodome\\Hash\\_MD4.pyd',
   'C:\\Users\\jaden\\AppData\\Local\\Programs\\Python\\Python310\\lib\\site-packages\\Cryptodome\\Hash\\_MD4.pyd',
   'BINARY'),
  ('Cryptodome\\Cipher\\_raw_ctr.pyd',
   'C:\\Users\\jaden\\AppData\\Local\\Programs\\Python\\Python310\\lib\\site-packages\\Cryptodome\\Cipher\\_raw_ctr.pyd',
   'BINARY'),
  ('Cryptodome\\Cipher\\_raw_aesni.pyd',
   'C:\\Users\\jaden\\AppData\\Local\\Programs\\Python\\Python310\\lib\\site-packages\\Cryptodome\\Cipher\\_raw_aesni.pyd',
   'BINARY'),
  ('Cryptodome\\Cipher\\_raw_ecb.pyd',
   'C:\\Users\\jaden\\AppData\\Local\\Programs\\Python\\Python310\\lib\\site-packages\\Cryptodome\\Cipher\\_raw_ecb.pyd',
   'BINARY'),
  ('Cryptodome\\Cipher\\_pkcs1_decode.pyd',
   'C:\\Users\\jaden\\AppData\\Local\\Programs\\Python\\Python310\\lib\\site-packages\\Cryptodome\\Cipher\\_pkcs1_decode.pyd',
   'BINARY'),
  ('Cryptodome\\Hash\\_ghash_clmul.pyd',
   'C:\\Users\\jaden\\AppData\\Local\\Programs\\Python\\Python310\\lib\\site-packages\\Cryptodome\\Hash\\_ghash_clmul.pyd',
   'BINARY'),
  ('Cryptodome\\Hash\\_SHA256.pyd',
   'C:\\Users\\jaden\\AppData\\Local\\Programs\\Python\\Python310\\lib\\site-packages\\Cryptodome\\Hash\\_SHA256.pyd',
   'BINARY'),
  ('Cryptodome\\Cipher\\_raw_cast.pyd',
   'C:\\Users\\jaden\\AppData\\Local\\Programs\\Python\\Python310\\lib\\site-packages\\Cryptodome\\Cipher\\_raw_cast.pyd',
   'BINARY'),
  ('Cryptodome\\Hash\\_ghash_portable.pyd',
   'C:\\Users\\jaden\\AppData\\Local\\Programs\\Python\\Python310\\lib\\site-packages\\Cryptodome\\Hash\\_ghash_portable.pyd',
   'BINARY'),
  ('Cryptodome\\Hash\\_poly1305.pyd',
   'C:\\Users\\jaden\\AppData\\Local\\Programs\\Python\\Python310\\lib\\site-packages\\Cryptodome\\Hash\\_poly1305.pyd',
   'BINARY'),
  ('Cryptodome\\Hash\\_SHA512.pyd',
   'C:\\Users\\jaden\\AppData\\Local\\Programs\\Python\\Python310\\lib\\site-packages\\Cryptodome\\Hash\\_SHA512.pyd',
   'BINARY'),
  ('Cryptodome\\Util\\_strxor.pyd',
   'C:\\Users\\jaden\\AppData\\Local\\Programs\\Python\\Python310\\lib\\site-packages\\Cryptodome\\Util\\_strxor.pyd',
   'BINARY'),
  ('Cryptodome\\Hash\\_MD2.pyd',
   'C:\\Users\\jaden\\AppData\\Local\\Programs\\Python\\Python310\\lib\\site-packages\\Cryptodome\\Hash\\_MD2.pyd',
   'BINARY'),
  ('Cryptodome\\Hash\\_SHA384.pyd',
   'C:\\Users\\jaden\\AppData\\Local\\Programs\\Python\\Python310\\lib\\site-packages\\Cryptodome\\Hash\\_SHA384.pyd',
   'BINARY'),
  ('Cryptodome\\Util\\_cpuid_c.pyd',
   'C:\\Users\\jaden\\AppData\\Local\\Programs\\Python\\Python310\\lib\\site-packages\\Cryptodome\\Util\\_cpuid_c.pyd',
   'BINARY'),
  ('Cryptodome\\Cipher\\_raw_des.pyd',
   'C:\\Users\\jaden\\AppData\\Local\\Programs\\Python\\Python310\\lib\\site-packages\\Cryptodome\\Cipher\\_raw_des.pyd',
   'BINARY'),
  ('Cryptodome\\Hash\\_BLAKE2s.pyd',
   'C:\\Users\\jaden\\AppData\\Local\\Programs\\Python\\Python310\\lib\\site-packages\\Cryptodome\\Hash\\_BLAKE2s.pyd',
   'BINARY'),
  ('Cryptodome\\Cipher\\_raw_cbc.pyd',
   'C:\\Users\\jaden\\AppData\\Local\\Programs\\Python\\Python310\\lib\\site-packages\\Cryptodome\\Cipher\\_raw_cbc.pyd',
   'BINARY'),
  ('Cryptodome\\Cipher\\_raw_cfb.pyd',
   'C:\\Users\\jaden\\AppData\\Local\\Programs\\Python\\Python310\\lib\\site-packages\\Cryptodome\\Cipher\\_raw_cfb.pyd',
   'BINARY'),
  ('Cryptodome\\Math\\_modexp.pyd',
   'C:\\Users\\jaden\\AppData\\Local\\Programs\\Python\\Python310\\lib\\site-packages\\Cryptodome\\Math\\_modexp.pyd',
   'BINARY'),
  ('Cryptodome\\Cipher\\_raw_arc2.pyd',
   'C:\\Users\\jaden\\AppData\\Local\\Programs\\Python\\Python310\\lib\\site-packages\\Cryptodome\\Cipher\\_raw_arc2.pyd',
   'BINARY'),
  ('Cryptodome\\Cipher\\_raw_ocb.pyd',
   'C:\\Users\\jaden\\AppData\\Local\\Programs\\Python\\Python310\\lib\\site-packages\\Cryptodome\\Cipher\\_raw_ocb.pyd',
   'BINARY'),
  ('Cryptodome\\Hash\\_SHA1.pyd',
   'C:\\Users\\jaden\\AppData\\Local\\Programs\\Python\\Python310\\lib\\site-packages\\Cryptodome\\Hash\\_SHA1.pyd',
   'BINARY'),
  ('Cryptodome\\Cipher\\_raw_des3.pyd',
   'C:\\Users\\jaden\\AppData\\Local\\Programs\\Python\\Python310\\lib\\site-packages\\Cryptodome\\Cipher\\_raw_des3.pyd',
   'BINARY'),
  ('Cryptodome\\Cipher\\_Salsa20.pyd',
   'C:\\Users\\jaden\\AppData\\Local\\Programs\\Python\\Python310\\lib\\site-packages\\Cryptodome\\Cipher\\_Salsa20.pyd',
   'BINARY'),
  ('Cryptodome\\Hash\\_keccak.pyd',
   'C:\\Users\\jaden\\AppData\\Local\\Programs\\Python\\Python310\\lib\\site-packages\\Cryptodome\\Hash\\_keccak.pyd',
   'BINARY'),
  ('Cryptodome\\Protocol\\_scrypt.pyd',
   'C:\\Users\\jaden\\AppData\\Local\\Programs\\Python\\Python310\\lib\\site-packages\\Cryptodome\\Protocol\\_scrypt.pyd',
   'BINARY'),
  ('_decimal.pyd',
   'C:\\Users\\jaden\\AppData\\Local\\Programs\\Python\\Python310\\DLLs\\_decimal.pyd',
   'EXTENSION'),
  ('_hashlib.pyd',
   'C:\\Users\\jaden\\AppData\\Local\\Programs\\Python\\Python310\\DLLs\\_hashlib.pyd',
   'EXTENSION'),
  ('_bz2.pyd',
   'C:\\Users\\jaden\\AppData\\Local\\Programs\\Python\\Python310\\DLLs\\_bz2.pyd',
   'EXTENSION'),
  ('select.pyd',
   'C:\\Users\\jaden\\AppData\\Local\\Programs\\Python\\Python310\\DLLs\\select.pyd',
   'EXTENSION'),
  ('_socket.pyd',
   'C:\\Users\\jaden\\AppData\\Local\\Programs\\Python\\Python310\\DLLs\\_socket.pyd',
   'EXTENSION'),
  ('unicodedata.pyd',
   'C:\\Users\\jaden\\AppData\\Local\\Programs\\Python\\Python310\\DLLs\\unicodedata.pyd',
   'EXTENSION'),
  ('_ssl.pyd',
   'C:\\Users\\jaden\\AppData\\Local\\Programs\\Python\\Python310\\DLLs\\_ssl.pyd',
   'EXTENSION'),
  ('_ctypes.pyd',
   'C:\\Users\\jaden\\AppData\\Local\\Programs\\Python\\Python310\\DLLs\\_ctypes.pyd',
   'EXTENSION'),
  ('lz4\\_version.cp310-win_amd64.pyd',
   'C:\\Users\\jaden\\AppData\\Local\\Programs\\Python\\Python310\\lib\\site-packages\\lz4\\_version.cp310-win_amd64.pyd',
   'EXTENSION'),
  ('lz4\\block\\_block.cp310-win_amd64.pyd',
   'C:\\Users\\jaden\\AppData\\Local\\Programs\\Python\\Python310\\lib\\site-packages\\lz4\\block\\_block.cp310-win_amd64.pyd',
   'EXTENSION'),
  ('_sqlite3.pyd',
   'C:\\Users\\jaden\\AppData\\Local\\Programs\\Python\\Python310\\DLLs\\_sqlite3.pyd',
   'EXTENSION'),
  ('_queue.pyd',
   'C:\\Users\\jaden\\AppData\\Local\\Programs\\Python\\Python310\\DLLs\\_queue.pyd',
   'EXTENSION'),
  ('charset_normalizer\\md__mypyc.cp310-win_amd64.pyd',
   'C:\\Users\\jaden\\AppData\\Local\\Programs\\Python\\Python310\\lib\\site-packages\\charset_normalizer\\md__mypyc.cp310-win_amd64.pyd',
   'EXTENSION'),
  ('charset_normalizer\\md.cp310-win_amd64.pyd',
   'C:\\Users\\jaden\\AppData\\Local\\Programs\\Python\\Python310\\lib\\site-packages\\charset_normalizer\\md.cp310-win_amd64.pyd',
   'EXTENSION'),
  ('_lzma.pyd',
   'C:\\Users\\jaden\\AppData\\Local\\Programs\\Python\\Python310\\DLLs\\_lzma.pyd',
   'EXTENSION'),
  ('libcrypto-1_1.dll',
   'C:\\Users\\jaden\\AppData\\Local\\Programs\\Python\\Python310\\DLLs\\libcrypto-1_1.dll',
   'BINARY'),
  ('libssl-1_1.dll',
   'C:\\Users\\jaden\\AppData\\Local\\Programs\\Python\\Python310\\DLLs\\libssl-1_1.dll',
   'BINARY'),
  ('libffi-7.dll',
   'C:\\Users\\jaden\\AppData\\Local\\Programs\\Python\\Python310\\DLLs\\libffi-7.dll',
   'BINARY'),
  ('sqlite3.dll',
   'C:\\Users\\jaden\\AppData\\Local\\Programs\\Python\\Python310\\DLLs\\sqlite3.dll',
   'BINARY')],
 [],
 [],
 [('base_library.zip',
   'C:\\Users\\jaden\\Downloads\\Pirate-Cookie-Grabber-main\\Pirate-Cookie-Grabber-main\\build\\PirateStealer\\base_library.zip',
   'DATA'),
  ('lz4-4.3.2.dist-info\\top_level.txt',
   'c:\\users\\jaden\\appdata\\local\\programs\\python\\python310\\lib\\site-packages\\lz4-4.3.2.dist-info\\top_level.txt',
   'DATA'),
  ('certifi\\py.typed',
   'C:\\Users\\jaden\\AppData\\Local\\Programs\\Python\\Python310\\lib\\site-packages\\certifi\\py.typed',
   'DATA'),
  ('lz4-4.3.2.dist-info\\WHEEL',
   'c:\\users\\jaden\\appdata\\local\\programs\\python\\python310\\lib\\site-packages\\lz4-4.3.2.dist-info\\WHEEL',
   'DATA'),
  ('lz4-4.3.2.dist-info\\RECORD',
   'c:\\users\\jaden\\appdata\\local\\programs\\python\\python310\\lib\\site-packages\\lz4-4.3.2.dist-info\\RECORD',
   'DATA'),
  ('certifi\\cacert.pem',
   'C:\\Users\\jaden\\AppData\\Local\\Programs\\Python\\Python310\\lib\\site-packages\\certifi\\cacert.pem',
   'DATA'),
  ('lz4-4.3.2.dist-info\\LICENSE',
   'c:\\users\\jaden\\appdata\\local\\programs\\python\\python310\\lib\\site-packages\\lz4-4.3.2.dist-info\\LICENSE',
   'DATA'),
  ('lz4-4.3.2.dist-info\\INSTALLER',
   'c:\\users\\jaden\\appdata\\local\\programs\\python\\python310\\lib\\site-packages\\lz4-4.3.2.dist-info\\INSTALLER',
   'DATA'),
  ('lz4-4.3.2.dist-info\\METADATA',
   'c:\\users\\jaden\\appdata\\local\\programs\\python\\python310\\lib\\site-packages\\lz4-4.3.2.dist-info\\METADATA',
   'DATA')],
 [])
